// Jest Snapshot v1, https://goo.gl/fbAQLP

exports[`game_card Render component snapshot 1`] = `
<div
  className="game-card-component grid-block vertical"
>
  <div
    className="grid-block shrink align-center game_name"
  >
    <h4>
      ! Fishy !
    </h4>
  </div>
  <div
    className="grid-block shrink align-center image-layout"
  >
    <img
      className="image"
      height={256}
      src="https://www.speedrun.com/themes/fishy/cover-256.png"
      width={360}
    />
  </div>
  <div
    className="grid-block shrink align-center card-item game_name_two"
  >
    Game: 
    ! Fishy !
  </div>
  <div
    className="grid-block shrink align-center card-item game_player"
  >
    Player: 
    f1
  </div>
  <div
    className="grid-block shrink align-center card-item game_run_time"
  >
    time: 
    2016-05-24
  </div>
  <div
    className="grid-block shrink align-center card-item "
  >
    <a
      className="game_video"
      href="https://youtu.be/-Vesbd8uJzE"
      target="_blank"
    >
      See the video
    </a>
  </div>
</div>
`;
